…
Nothing too out of the ordinary, we have some young people and old people but nothing weird.
Out of curiosity let us take a look at that one age that is above the pack.


```r
reviews_train %>%
  count(age, sort = TRUE)
## # A tibble: 77 x 2
##      age     n
##    <dbl> <int>
##  1    39   932
##  2    35   685
##  3    36   640
##  4    34   600
##  5    38   583
##  6    37   572
##  7    33   552
##  8    41   549
##  9    46   543
## 10    42   502
## # … with 67 more rows
```

Since we have the clothing id, then I want to know if any of the reviews apply to the same articles of clothing.


```r
reviews_train %>%
  count(clothing_id, sort = TRUE) 
## # A tibble: 1,068 x 2
##    clothing_id     n
##          <dbl> <int>
##  1        1078   758
##  2         862   603
##  3        1094   580
##  4         872   420
##  5        1081   415
##  6         829   409
##  7        1110   347
##  8         868   329
##  9         895   309
## 10         936   264
## # … with 1,058 more rows
```
…
