…
library(tidyverse)
## Warning: package 'tibble' was built under R version 3.6.2
library(gutenbergr)

titles <- c(
  "The War of the Worlds",
  "Pride and Prejudice"
)
books <- gutenberg_works(title %in% titles) %>%
  gutenberg_download(meta_fields = "title") %>%
  mutate(title = as.factor(title)) %>%
  select(-gutenberg_id)

books
## # A tibble: 19,504 x 2
##    text                                                      title              
##    <chr>                                                     <fct>              
##  1 "The War of the Worlds"                                   The War of the Wor…
##  2 ""                                                        The War of the Wor…
##  3 "by H. G. Wells [1898]"                                   The War of the Wor…
##  4 ""                                                        The War of the Wor…
##  5 ""                                                        The War of the Wor…
##  6 "     But who shall dwell in these worlds if they be"     The War of the Wor…
##  7 "     inhabited? .  .  .  Are we or they Lords of the"    The War of the Wor…
##  8 "     World? .  .  .  And how are all things made for ma… The War of the Wor…
##  9 "          KEPLER (quoted in The Anatomy of Melancholy)"  The War of the Wor…
## 10 ""                                                        The War of the Wor…
## # … with 19,494 more rows
…
Evaluation

Now that we have fitted the data based on the training data we can evaluate based on the testing data set. Here we will use the parsnip functions predict_class() and predict_classprob() to give us the predicted class and predicted probabilities for the two models. Neatly collecting the whole thing in one tibble.

eval_tibble <- stopword_test_data %>%
  select(title) %>%
  mutate(
    class_stopword = parsnip:::predict_class(stopword_model, stopword_test_data),
    class_julia    = parsnip:::predict_class(julia_model, julia_test_data),
    prop_stopword  = parsnip:::predict_classprob(stopword_model, stopword_test_data) %>% pull(`The War of the Worlds`),
    prop_julia     = parsnip:::predict_classprob(julia_model, julia_test_data) %>% pull(`The War of the Worlds`)
  )

eval_tibble
## # A tibble: 4,027 x 5
##    title           class_stopword     class_julia       prop_stopword prop_julia
##    <fct>           <fct>              <fct>                     <dbl>      <dbl>
##  1 The War of the… Pride and Prejudi… The War of the W…         0.475      0.508
##  2 The War of the… Pride and Prejudi… Pride and Prejud…         0.498      0.388
##  3 The War of the… Pride and Prejudi… Pride and Prejud…         0.335      0.315
##  4 The War of the… The War of the Wo… The War of the W…         0.690      0.710
##  5 The War of the… The War of the Wo… The War of the W…         0.650      0.607
##  6 The War of the… Pride and Prejudi… Pride and Prejud…         0.241      0.264
##  7 The War of the… Pride and Prejudi… Pride and Prejud…         0.369      0.351
##  8 The War of the… Pride and Prejudi… The War of the W…         0.403      0.568
##  9 The War of the… The War of the Wo… The War of the W…         0.520      0.631
## 10 The War of the… The War of the Wo… The War of the W…         0.511      0.545
## # … with 4,017 more rows
…
