Analysing useR!2017 schedule data
…
conn <- combn(node_size$name, 2) %>%
  as_tibble() %>%
  map_int(~ inner_join(sub_data %>% filter(name == .x[1]), 
                       sub_data %>% filter(name == .x[2]), by = "attendee")
              %>% nrow()) %>%
  rbind(combn(node_size$name, 2)) %>% t() %>% as.tibble()
## Warning: `as.tibble()` was deprecated in tibble 2.0.0.
## Please use `as_tibble()` instead.
## The signature and semantics have changed, see `?as_tibble`.
## Warning: The `x` argument of `as_tibble.matrix()` must have unique column names if `.name_repair` is omitted as of tibble 2.0.0.
## Using compatibility `.name_repair`.
names(conn) <- c("n", "from", "to")
conn
## # A tibble: 45 x 3
##    n     from                               to                                  
##    <chr> <chr>                              <chr>                               
##  1 21    A Tidy Data Model for Natural Lan… bradio: Add data music widgets to y…
##  2 57    A Tidy Data Model for Natural Lan… Developing and deploying large scal…
##  3 82    A Tidy Data Model for Natural Lan… How we built a Shiny App for 700 us…
##  4 84    A Tidy Data Model for Natural Lan… Interacting with databases from Shi…
##  5 84    A Tidy Data Model for Natural Lan… manifestoR - a tool for data journa…
##  6 99    A Tidy Data Model for Natural Lan… Neural Embeddings and NLP with R an…
##  7 83    A Tidy Data Model for Natural Lan… ShinyProxy                          
##  8 155   A Tidy Data Model for Natural Lan… Text Analysis and Text Mining Using…
##  9 168   A Tidy Data Model for Natural Lan… Text mining, the tidy way           
## 10 46    bradio: Add data music widgets to… Developing and deploying large scal…
## # … with 35 more rows
…
