Textrecipes series: lexicons
…
library(tidymodels)
library(textrecipes)
library(tidytext)
library(textdata)
theme_set(theme_minimal())

What is a lexicon?

A lexicon is a list of words with one or more corresponding values for each word. You could imagine a sentiment lexicon having entries such as “awesome = 1”, “terrible = -1” and “okay = 0”. Having this information could be useful if you want to predict if some text is positively charged or negatively charged.

One real-world lexicon is the AFINN lexicon. It rates English words on a scale from -5 (negative) to 5 (positive). The words have been manually labeled by Finn Årup Nielsen in 2009-2011. It is available in textdata as the function lexicon_afinn()

lexicon_afinn()
## # A tibble: 2,477 x 2
##    word       value
##    <chr>      <dbl>
##  1 abandon       -2
##  2 abandoned     -2
##  3 abandons      -2
##  4 abducted      -2
##  5 abduction     -2
##  6 abductions    -2
##  7 abhor         -3
##  8 abhorred      -3
##  9 abhorrent     -3
## 10 abhors        -3
## # … with 2,467 more rows
…
set.seed(1234)
review_split <- initial_split(user_reviews)

review_training <- training(review_split)
review_testing <- training(review_split)

We can use lexicons in our text mining with tidytext too. First, we will tokenize

review_tokens <- review_training %>%
  select(grade, user_name, text) %>%
  unnest_tokens(tokens, text)

review_tokens
## # A tibble: 270,013 x 3
##    grade user_name tokens 
##    <fct> <chr>     <chr>  
##  1 Low   mds27272  my     
##  2 Low   mds27272  gf     
##  3 Low   mds27272  started
##  4 Low   mds27272  playing
##  5 Low   mds27272  before 
##  6 Low   mds27272  me     
##  7 Low   mds27272  no     
##  8 Low   mds27272  option 
##  9 Low   mds27272  to     
## 10 Low   mds27272  create 
## # … with 270,003 more rows

then we can use a left_join() to add a sentiment variable

review_tokens %>%
  left_join(lexicon_afinn(), by = c("tokens" = "word"))
## # A tibble: 270,013 x 4
##    grade user_name tokens  value
##    <fct> <chr>     <chr>   <dbl>
##  1 Low   mds27272  my         NA
##  2 Low   mds27272  gf         NA
##  3 Low   mds27272  started    NA
##  4 Low   mds27272  playing    NA
##  5 Low   mds27272  before     NA
##  6 Low   mds27272  me         NA
##  7 Low   mds27272  no         -1
##  8 Low   mds27272  option     NA
##  9 Low   mds27272  to         NA
## 10 Low   mds27272  create     NA
## # … with 270,003 more rows

If we want to look at the overall document-wise sentiment level we can sum the values within each document

review_tokens_sentiment <- review_tokens %>%
  left_join(lexicon_afinn(), by = c("tokens" = "word")) %>%
  group_by(user_name, grade) %>% 
  summarise(sentiment = sum(value, na.rm = TRUE))

review_tokens_sentiment
## # A tibble: 2,250 x 3
## # Groups:   user_name [2,250]
##    user_name     grade sentiment
##    <chr>         <fct>     <dbl>
##  1 11_11         Low          16
##  2 12hwilso      Low           3
##  3 1mooey        High         10
##  4 24ths         Low           1
##  5 3nd3r02       Low          25
##  6 425_Flex      Low         -11
##  7 7kurtis7      Low          -3
##  8 7Swords       Low          -2
##  9 8bheotapus    Low          -7
## 10 A_Mighty_Pleb Low           0
## # … with 2,240 more rows
…
It appears that the lexicon is not entirely useless. The sentiments for highly-rated reviews are a little bit higher.

Reshaping a lexicon

A lexicon needs to be in a specific format to be used in textrecipes. We need a tibble with the first column containing tokens and any additional columns should contain the numerics. lexicon_afinn() already meets the demand and can be used directly. The lexicon_loughran() doesn’t give us the information we want.

lexicon_loughran()
## # A tibble: 4,150 x 2
##    word         sentiment
##    <chr>        <chr>    
##  1 abandon      negative 
##  2 abandoned    negative 
##  3 abandoning   negative 
##  4 abandonment  negative 
##  5 abandonments negative 
##  6 abandons     negative 
##  7 abdicated    negative 
##  8 abdicates    negative 
##  9 abdicating   negative 
## 10 abdication   negative 
## # … with 4,140 more rows
…
We can use tidyr to turn this into a wide format.

lexicon_loughran_wide <- lexicon_loughran() %>%
  mutate(var = 1) %>% 
  tidyr::pivot_wider(names_from = sentiment, 
                     values_from = var, 
                     values_fill = list(var = 0))

lexicon_loughran_wide
## # A tibble: 3,917 x 7
##    word         negative positive uncertainty litigious constraining superfluous
##    <chr>           <dbl>    <dbl>       <dbl>     <dbl>        <dbl>       <dbl>
##  1 abandon             1        0           0         0            0           0
##  2 abandoned           1        0           0         0            0           0
##  3 abandoning          1        0           0         0            0           0
##  4 abandonment         1        0           0         0            0           0
##  5 abandonments        1        0           0         0            0           0
##  6 abandons            1        0           0         0            0           0
##  7 abdicated           1        0           0         0            0           0
##  8 abdicates           1        0           0         0            0           0
##  9 abdicating          1        0           0         0            0           0
## 10 abdication          1        0           0         0            0           0
## # … with 3,907 more rows

This is now be used. Textrecipes are able to handle multi-axis lexicons with no problems.

Using textrecipes

To use these lexicons in our modeling step will we use the step_word_embeddings() step. This is normally used for word embeddings, but you can treat a lexicon (when transformed according to the last section) as a selection of word vector or in other words a word embedding.

To see the effect lets create a minimal recipe that only sums along the lexicons using the AFINN lexicon

recipe(~ text, data = review_training) %>%
  step_tokenize(text) %>%
  step_word_embeddings(text, embeddings = lexicon_afinn()) %>%
  prep() %>%
  juice()
## # A tibble: 2,250 x 1
##    w_embed_sum_value
##                <dbl>
##  1               -11
##  2                 7
##  3                -5
##  4                 9
##  5                 2
##  6                16
##  7                11
##  8                 0
##  9                 4
## 10                -3
## # … with 2,240 more rows

This gives us 1 column of the sum of the values. If we instead used the lexicon_loughran_wide lexicon the get back 6 variables.

recipe(~ text, data = review_training) %>%
  step_tokenize(text) %>%
  step_word_embeddings(text, embeddings = lexicon_loughran_wide, prefix = "loughran") %>%
  prep() %>%
  juice()
## # A tibble: 2,250 x 6
##    loughran_sum_ne… loughran_sum_po… loughran_sum_un… loughran_sum_li…
##               <dbl>            <dbl>            <dbl>            <dbl>
##  1                2                0                0                0
##  2                2                8                0                0
##  3                2                0                0                0
##  4                0                3                0                0
##  5                2                2                1                0
##  6                2                5                6                0
##  7                0                4                0                0
##  8                1                0                0                0
##  9                2                5                0                0
## 10                0                0                0                0
## # … with 2,240 more rows, and 2 more variables:
## #   loughran_sum_constraining <dbl>, loughran_sum_superfluous <dbl>
…
By inspectiong the results we get:

rec_spec %>%
  prep() %>%
  juice()
## # A tibble: 2,250 x 103
##     date grade afinn_sum_value tf_text_1 tf_text_10 tf_text_2 tf_text_able
##    <dbl> <fct>           <dbl> <lgl>     <lgl>      <lgl>     <lgl>       
##  1     0 Low               -11 FALSE     FALSE      FALSE     FALSE       
##  2     0 Low                 7 TRUE      FALSE      FALSE     TRUE        
##  3     0 Low                -5 FALSE     FALSE      FALSE     FALSE       
##  4     0 Low                 9 FALSE     FALSE      FALSE     FALSE       
##  5     0 Low                 2 FALSE     FALSE      FALSE     TRUE        
##  6     0 Low                16 FALSE     FALSE      FALSE     FALSE       
##  7     0 Low                11 FALSE     FALSE      FALSE     FALSE       
##  8     0 Low                 0 FALSE     FALSE      FALSE     FALSE       
##  9     0 Low                 4 FALSE     FALSE      FALSE     FALSE       
## 10     0 Low                -3 FALSE     FALSE      FALSE     FALSE       
## # … with 2,240 more rows, and 96 more variables: tf_text_absolutely <lgl>,
## #   tf_text_account <lgl>, tf_text_actually <lgl>, tf_text_also <lgl>,
## #   tf_text_amazing <lgl>, tf_text_animal <lgl>, tf_text_another <lgl>,
## #   tf_text_anything <lgl>, tf_text_back <lgl>, tf_text_bad <lgl>,
## #   tf_text_best <lgl>, tf_text_bought <lgl>, tf_text_buy <lgl>,
## #   tf_text_can <lgl>, tf_text_console <lgl>, tf_text_crossing <lgl>,
## #   tf_text_day <lgl>, tf_text_else <lgl>, tf_text_enjoy <lgl>,
## #   tf_text_even <lgl>, tf_text_ever <lgl>, tf_text_every <lgl>,
## #   tf_text_everyone <lgl>, tf_text_everything <lgl>, tf_text_expand <lgl>,
…
