…
Nothing too out of the ordinary, we have some young people and old people but nothing weird.
Out of curiosity let us take a look at that one age that is above the pack.

reviews_train %>%
  count(age, sort = TRUE)
## # A tibble: 77 x 2
##      age     n
##    <dbl> <int>
##  1    39   987
##  2    35   674
##  3    36   623
##  4    34   595
##  5    38   590
##  6    37   574
##  7    41   570
##  8    33   541
##  9    46   533
## 10    32   489
## # … with 67 more rows

Since we have the clothing id, then I want to know if any of the reviews apply to the same articles of clothing.

reviews_train %>%
  count(clothing_id, sort = TRUE) 
## # A tibble: 1,074 x 2
##    clothing_id     n
##          <dbl> <int>
##  1        1078   780
##  2         862   615
##  3        1094   553
##  4        1081   438
##  5         872   409
##  6         829   403
##  7        1110   359
##  8         868   312
##  9         895   293
## 10         936   266
## # … with 1,064 more rows
…
