…
There is two new `engine`s available in `step_tokenize()`.
the [tokenizers.bpe](https://github.com/bnosac/tokenizers.bpe) engine lets you perform [Byte Pair Encoding](https://en.wikipedia.org/wiki/Byte_pair_encoding) on you text as a mean of tokenization.


```r
data("okc_text")

recipe(~ essay6, data = okc_text) %>%
  step_tokenize(essay6, engine = "tokenizers.bpe") %>%
  step_tokenfilter(essay6, max_times = 100) %>%
  step_tf(essay6) %>%
  prep() %>%
  bake(new_data = NULL)
## # A tibble: 750 x 100
##    `tf_essay6_:` `tf_essay6_!` `tf_essay6_?` `tf_essay6_?<br` tf_essay6_...
##            <dbl>         <dbl>         <dbl>            <dbl>         <dbl>
##  1             1             0             0                0             0
##  2             0             0             0                0             0
##  3             0             0             0                0             0
##  4             0             0             0                0             0
##  5             0             0             0                0             0
##  6             0             0             0                0             0
##  7             0             0             0                1             0
##  8             0             0             0                0             0
##  9             0             0             0                0             0
## 10             0             0             0                0             0
## # â€¦ with 740 more rows, and 95 more variables: `tf_essay6_'s` <dbl>,
## #   `tf_essay6_"` <dbl>, `tf_essay6_">` <dbl>, `tf_essay6_)` <dbl>,
## #   `tf_essay6_â–-` <dbl>, `tf_essay6_â–(` <dbl>, `tf_essay6_â–<a` <dbl>,
## #   `tf_essay6_â–all` <dbl>, `tf_essay6_â–also` <dbl>, `tf_essay6_â–always` <dbl>,
## #   `tf_essay6_â–am` <dbl>, `tf_essay6_â–an` <dbl>, `tf_essay6_â–as` <dbl>,
## #   `tf_essay6_â–at` <dbl>, `tf_essay6_â–being` <dbl>, `tf_essay6_â–better` <dbl>,
## #   `tf_essay6_â–but` <dbl>, `tf_essay6_â–class="ilink"` <dbl>,
## #   `tf_essay6_â–d` <dbl>, `tf_essay6_â–doing` <dbl>, `tf_essay6_â–friends` <dbl>,
## #   `tf_essay6_â–from` <dbl>, `tf_essay6_â–future` <dbl>, `tf_essay6_â–get` <dbl>,
…
additional arguments can be passed to `tokenizers.bpe::bpe()` via the `training_options` argument.


```r
recipe(~ essay6, data = okc_text) %>%
  step_tokenize(essay6, 
                engine = "tokenizers.bpe",
                training_options = list(vocab_size = 100)) %>%
  step_tf(essay6) %>%
  prep() %>%
  bake(new_data = NULL)
## # A tibble: 750 x 100
##    `tf_essay6_-` `tf_essay6_,` `tf_essay6_;` `tf_essay6_:` `tf_essay6_!`
##            <dbl>         <dbl>         <dbl>         <dbl>         <dbl>
##  1             0             1             1             2             0
##  2             0            13             1             0             0
##  3             0             1             0             0             1
##  4             0             0             0             0             0
##  5             0             0             0             0             1
##  6             0             1             0             0             0
##  7             0             4             0             1             0
##  8             2             0             0             0             0
##  9             0             0             0             0             0
## 10             0            10             0             0             0
## # â€¦ with 740 more rows, and 95 more variables: `tf_essay6_?` <dbl>,
## #   tf_essay6_. <dbl>, `tf_essay6_'` <dbl>, `tf_essay6_"` <dbl>,
## #   `tf_essay6_(` <dbl>, `tf_essay6_)` <dbl>, `tf_essay6_[` <dbl>,
## #   `tf_essay6_]` <dbl>, `tf_essay6_*` <dbl>, `tf_essay6_/` <dbl>,
## #   `tf_essay6_&` <dbl>, `tf_essay6_+` <dbl>, `tf_essay6_<` <dbl>,
## #   `tf_essay6_<BOS>` <dbl>, `tf_essay6_<br` <dbl>, `tf_essay6_<EOS>` <dbl>,
## #   `tf_essay6_<PAD>` <dbl>, `tf_essay6_<UNK>` <dbl>, `tf_essay6_=` <dbl>,
## #   `tf_essay6_>` <dbl>, `tf_essay6_~` <dbl>, `tf_essay6_â–` <dbl>,
## #   `tf_essay6_â–/` <dbl>, `tf_essay6_â–/>` <dbl>, `tf_essay6_â–a` <dbl>,
…
And then you need to pass it into `training_options` under the name `model`.
This will then use the tokenizer


```r
recipe(~ essay6, data = okc_text) %>%
  step_tokenize(essay6, engine = "udpipe", 
                training_options = list(model = udmodel)) %>%
  step_tf(essay6) %>%
  prep() %>%
  bake(new_data = NULL)
## # A tibble: 750 x 4,044
##    `tf_essay6_-` `tf_essay6_--` `tf_essay6_---` `tf_essay6_---<` `tf_essay6_--&`
##            <dbl>          <dbl>           <dbl>            <dbl>           <dbl>
##  1             0              0               0                0               0
##  2             0              0               0                0               0
##  3             0              0               0                0               0
##  4             0              0               0                0               0
##  5             0              0               0                0               0
##  6             0              0               0                0               0
##  7             0              0               0                0               0
##  8             2              0               0                0               0
##  9             0              0               0                0               0
## 10             0              0               0                0               0
## # â€¦ with 740 more rows, and 4,039 more variables: `tf_essay6_--ernesto` <dbl>,
## #   `tf_essay6_-apocalypse.<` <dbl>, `tf_essay6_-dominated` <dbl>,
## #   `tf_essay6_-friendly` <dbl>, `tf_essay6_-insane` <dbl>,
## #   `tf_essay6_-languages` <dbl>, `tf_essay6_-linear` <dbl>,
## #   `tf_essay6_-my` <dbl>, `tf_essay6_-numbingly` <dbl>,
## #   `tf_essay6_-voyeurism` <dbl>, `tf_essay6_,` <dbl>, `tf_essay6_,<` <dbl>,
## #   `tf_essay6_;` <dbl>, `tf_essay6_;-)` <dbl>, `tf_essay6_;)` <dbl>,
## #   `tf_essay6_:` <dbl>, `tf_essay6_:-)` <dbl>, `tf_essay6_:-d` <dbl>,
## #   `tf_essay6_:)` <dbl>, `tf_essay6_:<` <dbl>, `tf_essay6_:d` <dbl>,
…
But where it gets really interesting is that we are able to extract the lemmas


```r
recipe(~ essay6, data = okc_text) %>%
  step_tokenize(essay6, engine = "udpipe", 
                training_options = list(model = udmodel)) %>%
  step_lemma(essay6) %>%
  step_tf(essay6) %>%
  prep() %>%
  bake(new_data = NULL)
## # A tibble: 750 x 3,546
##    `tf_essay6_-` `tf_essay6_--` `tf_essay6_---` `tf_essay6_---<` `tf_essay6_--&`
##            <dbl>          <dbl>           <dbl>            <dbl>           <dbl>
##  1             0              0               0                0               0
##  2             0              0               0                0               0
##  3             0              0               0                0               0
##  4             0              0               0                0               0
##  5             0              0               0                0               0
##  6             0              0               0                0               0
##  7             0              0               0                0               0
##  8             2              0               0                0               0
##  9             0              0               0                0               0
## 10             0              0               0                0               0
## # â€¦ with 740 more rows, and 3,541 more variables: `tf_essay6_--ernesto` <dbl>,
## #   `tf_essay6_-apocalypse.<` <dbl>, `tf_essay6_-dominated` <dbl>,
## #   `tf_essay6_-friendly` <dbl>, `tf_essay6_-insane` <dbl>,
## #   `tf_essay6_-language` <dbl>, `tf_essay6_-linear` <dbl>,
## #   `tf_essay6_-my` <dbl>, `tf_essay6_-numbingly` <dbl>,
## #   `tf_essay6_-voyeurism` <dbl>, `tf_essay6_,` <dbl>, `tf_essay6_,<` <dbl>,
## #   `tf_essay6_;` <dbl>, `tf_essay6_;-)` <dbl>, `tf_essay6_;)` <dbl>,
## #   `tf_essay6_:` <dbl>, `tf_essay6_:-)` <dbl>, `tf_essay6_:-d` <dbl>,
## #   `tf_essay6_:)` <dbl>, `tf_essay6_:<` <dbl>, `tf_essay6_:d` <dbl>,
…
or use the [part of speech tags](https://en.wikipedia.org/wiki/Part_of_speech) in later steps, such as below where we are filtering to only keep nouns.


```r
recipe(~ essay6, data = okc_text) %>%
  step_tokenize(essay6, engine = "udpipe", 
                training_options = list(model = udmodel)) %>%
  step_pos_filter(essay6, keep_tags = "NOUN") %>%
  step_tf(essay6) %>%
  prep() %>%
  bake(new_data = NULL)
## # A tibble: 750 x 1,970
##    `tf_essay6_--erâ€¦ `tf_essay6_-lanâ€¦ `tf_essay6_-voyâ€¦ `tf_essay6_:d`
##               <dbl>            <dbl>            <dbl>          <dbl>
##  1                0                0                0              0
##  2                0                0                0              0
##  3                0                0                0              0
##  4                0                0                0              0
##  5                0                0                0              0
##  6                0                0                0              0
##  7                0                0                0              0
##  8                0                0                0              0
##  9                0                0                0              0
## 10                0                0                0              0
## # â€¦ with 740 more rows, and 1,966 more variables: `tf_essay6_:p` <dbl>,
## #   tf_essay6_...jk <dbl>, tf_essay6_...zombies <dbl>, `tf_essay6_'` <dbl>,
## #   `tf_essay6_/a` <dbl>, `tf_essay6_/interests?i=anything+frivolous` <dbl>,
## #   `tf_essay6_/interests?i=art` <dbl>, `tf_essay6_/interests?i=bdsm` <dbl>,
## #   `tf_essay6_/interests?i=brunch` <dbl>,
## #   `tf_essay6_/interests?i=communication` <dbl>,
## #   `tf_essay6_/interests?i=community` <dbl>,
## #   `tf_essay6_/interests?i=documentary` <dbl>,
## #   `tf_essay6_/interests?i=entp` <dbl>, `tf_essay6_/interests?i=film` <dbl>,
…
