…
::: {.cell}

```{.r .cell-code}
sprites_tbl <- tibble(
 pokemon = pokemon$pokemon,
 sprite = sprites_path
)
sprites_tbl
```

::: {.cell-output .cell-output-stdout}

```
# A tibble: 151 × 2
   pokemon    sprite                
   <chr>      <fs::path>            
 1 bulbasaur  sprites/bulbasaur.png 
 2 ivysaur    sprites/ivysaur.png   
 3 venusaur   sprites/venusaur.png  
 4 charmander sprites/charmander.png
 5 charmeleon sprites/charmeleon.png
 6 charizard  sprites/charizard.png 
 7 squirtle   sprites/squirtle.png  
 8 wartortle  sprites/wartortle.png 
 9 blastoise  sprites/blastoise.png 
10 caterpie   sprites/caterpie.png  
# ℹ 141 more rows
```
…
::: {.cell}

```{.r .cell-code}
moves <- read_csv(
  "moves.csv", 
 show_col_types = FALSE
)

moves
```

::: {.cell-output .cell-output-stdout}

```
# A tibble: 151 × 593
   name  razor_wind swords_dance   cut  bind vine_whip headbutt tackle body_slam
   <chr>      <dbl>        <dbl> <dbl> <dbl>     <dbl>    <dbl>  <dbl>     <dbl>
 1 bulb…          1            1     1     1         1        1      1         1
 2 cate…          0            0     0     0         0        0      1         0
 3 volt…          0            0     0     0         0        1      1         0
 4 elec…          0            0     0     0         0        1      1         0
 5 exeg…          0            1     0     0         0        1      0         0
 6 exeg…          0            1     0     0         0        1      0         1
 7 cubo…          0            1     0     0         0        1      0         1
 8 maro…          0            1     0     0         0        1      0         1
 9 hitm…          0            1     0     0         0        1      1         1
10 hitm…          0            1     0     0         0        1      1         1
# ℹ 141 more rows
# ℹ 584 more variables: take_down <dbl>, double_edge <dbl>, growl <dbl>,
#   strength <dbl>, mega_drain <dbl>, leech_seed <dbl>, growth <dbl>,
#   razor_leaf <dbl>, solar_beam <dbl>, poison_powder <dbl>,
#   sleep_powder <dbl>, petal_dance <dbl>, string_shot <dbl>, toxic <dbl>,
#   rage <dbl>, mimic <dbl>, double_team <dbl>, defense_curl <dbl>,
#   light_screen <dbl>, reflect <dbl>, bide <dbl>, sludge <dbl>, …
```
…
::: {.cell}

```{.r .cell-code}
moves_meta <- read_csv(
  "moves-meta.csv", 
 show_col_types = FALSE
)

moves_meta
```

::: {.cell-output .cell-output-stdout}

```
# A tibble: 592 × 4
   moves        type   priority category      
   <chr>        <chr>     <dbl> <chr>         
 1 razor_wind   normal        0 damage        
 2 swords_dance normal        0 net-good-stats
 3 cut          normal        0 damage        
 4 bind         normal        0 damage+ailment
 5 vine_whip    grass         0 damage        
 6 headbutt     normal        0 damage        
 7 tackle       normal        0 damage        
 8 body_slam    normal        0 damage+ailment
 9 take_down    normal        0 damage        
10 double_edge  normal        0 damage        
# ℹ 582 more rows
```
…
