…
We will be using the schrute package which includes the dataset for the week.
tidytext and tokenizers to do data exploration for the text.
spacyr to access the spacy to perform part of speech tagging.
tidymodels and
textrecipes to do to the preprocessing and modeling.
And lastly, we use paletteer to get pretty color palettes.

Exploring the data ⛏

The data comes with a lot of different variables. We will be focusing on character and text which contains the character and what they said, in English1.
First, let us take a look at how many lines each character has

theoffice %>%
  count(character, sort = TRUE)
## # A tibble: 773 x 2
##    character     n
##    <chr>     <int>
##  1 Michael   10921
##  2 Dwight     6847
##  3 Jim        6303
##  4 Pam        5031
##  5 Andy       3754
##  6 Angela     1569
##  7 Kevin      1564
##  8 Erin       1440
##  9 Oscar      1368
## 10 Ryan       1198
## # … with 763 more rows
…
These are not going too well.
It is doing best at predicting Michael correctly, and it seems to confuse Dwight and Michael a little bit.

Let us investigate the cases that didn’t go too well.
We can get the individual class probabilities by setting type = "prob" in predict()

class_predictions <- predict(final_model, office_test_prepped, type = "prob")
class_predictions
## # A tibble: 8,212 x 5
##    .pred_Andy .pred_Dwight .pred_Jim .pred_Michael .pred_Pam
##         <dbl>        <dbl>     <dbl>         <dbl>     <dbl>
##  1      0.239        0.167     0.237         0.248    0.108 
##  2      0.235        0.232     0.186         0.180    0.168 
##  3      0.176        0.101     0.344         0.322    0.0571
##  4      0.188        0.193     0.220         0.190    0.208 
##  5      0.250        0.178     0.171         0.216    0.184 
##  6      0.208        0.183     0.193         0.186    0.230 
##  7      0.166        0.137     0.256         0.199    0.242 
##  8      0.185        0.145     0.185         0.247    0.237 
##  9      0.195        0.226     0.212         0.180    0.188 
## 10      0.155        0.211     0.245         0.190    0.200 
## # … with 8,202 more rows
…
