Using stm to Investigate if Stemming is Appropriate
…
As a first test, we pick 3 English1 fairy tales by H.C. Andersens using the hcandersenr package. To create multiple “documents” for each fairy tale we start by tokenizing to sentences. Then we give each sentence a unique identifier.

fairy_tales <- hcandersen_en %>%
  filter(book %in% c("The fir tree", "The tinder-box", "Thumbelina")) %>%
  unnest_tokens(token, text, token = "sentences") %>%
  group_by(book) %>%
  mutate(sentence = row_number()) %>%
  ungroup() %>%
  unite(document, book, sentence)

fairy_tales
## # A tibble: 1,089 x 2
##    document        token                                                        
##    <chr>           <chr>                                                        
##  1 The tinder-box… "a soldier came marching along the high road: \"left, right …
##  2 The tinder-box… "he"                                                         
##  3 The tinder-box… "had his knapsack on his back, and a sword at his side; he h…
##  4 The tinder-box… "and was now returning home."                                
##  5 The tinder-box… "as he walked on, he met a very frightful-looking old"       
##  6 The tinder-box… "witch in the road."                                         
##  7 The tinder-box… "her under-lip hung quite down on her breast, and she stoppe…
##  8 The tinder-box… "and said, \"good evening, soldier; you have a very fine swo…
##  9 The tinder-box… "knapsack, and you are a real soldier; so you shall have as …
## 10 The tinder-box… "you like.\""                                                
## # … with 1,079 more rows

Now we unnest the tokens to words and create a new variable of the stemmed words

fairy_tales_tokens <- fairy_tales %>%
  unnest_tokens(token, token) %>%
  mutate(token_stem = wordStem(token))

fairy_tales_tokens
## # A tibble: 10,577 x 3
##    document         token    token_stem
##    <chr>            <chr>    <chr>     
##  1 The tinder-box_1 a        a         
##  2 The tinder-box_1 soldier  soldier   
##  3 The tinder-box_1 came     came      
##  4 The tinder-box_1 marching march     
##  5 The tinder-box_1 along    along     
##  6 The tinder-box_1 the      the       
##  7 The tinder-box_1 high     high      
##  8 The tinder-box_1 road     road      
##  9 The tinder-box_1 left     left      
## 10 The tinder-box_1 right    right     
## # … with 10,567 more rows

We can take a look at all the times where stemming we can look at all the times stemming yields a different token.

different <- fairy_tales_tokens %>%
  select(token, token_stem) %>%
  filter(token != token_stem) %>%
  unique()

different
## # A tibble: 759 x 2
##    token     token_stem
##    <chr>     <chr>     
##  1 marching  march     
##  2 his       hi        
##  3 wars      war       
##  4 was       wa        
##  5 returning return    
##  6 as        a         
##  7 walked    walk      
##  8 very      veri      
##  9 frightful fright    
## 10 looking   look      
## # … with 749 more rows

In this example, we have 759 different tokens. But since stemming can collapse multiple different tokens into one.

different %>%
  count(token_stem, sort = TRUE)
## # A tibble: 672 x 2
##    token_stem     n
##    <chr>      <int>
##  1 seiz           4
##  2 leav           3
##  3 live           3
##  4 look           3
##  5 place          3
##  6 plai           3
##  7 pleas          3
##  8 sai            3
##  9 trembl         3
## 10 appear         2
## # … with 662 more rows
…
We see that they did end up in the same bucket. If we instead pass in “dog” and “happy” they land in different topics.

stm_match(c("dog", "happy"), stm_model)
## [1] FALSE

All of this is not perfect, there is still some uncertainty but it is a good first step to evaluate if stemming is appropriate for your application.

tested <- tibble(terms = stem_buckets,
                 stem = names(stem_buckets)) %>%
  mutate(match = map_lgl(terms, stm_match, stm_model))

tested
## # A tibble: 672 x 3
##    terms        stem      match
##    <named list> <chr>     <lgl>
##  1 <chr [2]>    a         FALSE
##  2 <chr [2]>    abl       TRUE 
##  3 <chr [2]>    abov      TRUE 
##  4 <chr [2]>    accompani TRUE 
##  5 <chr [2]>    ach       TRUE 
##  6 <chr [2]>    admir     TRUE 
##  7 <chr [2]>    adorn     FALSE
##  8 <chr [2]>    ag        TRUE 
##  9 <chr [2]>    ala       TRUE 
## 10 <chr [2]>    alarm     TRUE 
## # … with 662 more rows
…
