Textrecipes series: TF-IDF
…
as we feared these are pretty specific and would be unlikely to be duplications at random. We will assume that this problem is a scraping error and remove the duplicate entries. Additionally, some of the point values are missing, since this is our target variable will I remove those data points as well.

If you are working on a real project you shouldn’t simply delete observations like that. Both of these errors smell a little bit like bad scraping so your first course of action should be testing your data pipeline for errors.

I found out about the issue with duplicate descriptions when I was browsing through other people’s analyses of the dataset.

Before we do any more analysis, let us remove the troublesome observations.

wine_ratings <- wine_ratings %>%
  filter(!duplicated(description), !is.na(price))

wine_ratings
## # A tibble: 111,567 x 14
##       X1 country description designation points price province region_1 region_2
##    <dbl> <chr>   <chr>       <chr>        <dbl> <dbl> <chr>    <chr>    <chr>   
##  1     1 Portug… This is ri… Avidagos        87    15 Douro    <NA>     <NA>    
##  2     2 US      Tart and s… <NA>            87    14 Oregon   Willame… Willame…
##  3     3 US      Pineapple … Reserve La…     87    13 Michigan Lake Mi… <NA>    
##  4     4 US      Much like … Vintner's …     87    65 Oregon   Willame… Willame…
##  5     5 Spain   Blackberry… Ars In Vit…     87    15 Norther… Navarra  <NA>    
##  6     6 Italy   Here's a b… Belsito         87    16 Sicily … Vittoria <NA>    
##  7     7 France  This dry a… <NA>            87    24 Alsace   Alsace   <NA>    
##  8     8 Germany Savory dri… Shine           87    12 Rheinhe… <NA>     <NA>    
##  9     9 France  This has g… Les Natures     87    27 Alsace   Alsace   <NA>    
## 10    10 US      Soft, supp… Mountain C…     87    19 Califor… Napa Va… Napa    
## # … with 111,557 more rows, and 5 more variables: taster_name <chr>,
## #   taster_twitter_handle <chr>, title <chr>, variety <chr>, winery <chr>
…
