…
As a first test, we pick 3 fairy tales by H.C. Andersens using the hcandersenr package.
To create multiple “documents” for each fairy tale we start by tokenizing to sentences.
Then we give each sentence a unique identifier.

fairy_tales <- hcandersen_en %>%
  filter(book %in% c("The fir tree", "The tinder-box", "Thumbelina")) %>%
  unnest_tokens(token, text, token = "sentences") %>%
  group_by(book) %>%
  mutate(sentence = row_number()) %>%
  ungroup() %>%
  unite(document, book, sentence)

fairy_tales

## # A tibble: 501 x 2
##    document       token                                                         
##    <chr>          <chr>                                                         
##  1 The fir tree_1 "far down in the forest, where the warm sun and the fresh air…
##  2 The fir tree_2 "the sun shone, and the soft air fluttered its leaves, and th…
##  3 The fir tree_3 "sometimes the children would bring a large basket of raspber…
##  4 The fir tree_4 "which made it feel more unhappy than before."                
##  5 The fir tree_5 "and yet all this while the tree grew a notch or joint taller…
##  6 The fir tree_6 "still, as it grew, it complained."                           
##  7 The fir tree_7 "\"oh!"                                                       
##  8 The fir tree_8 "how i wish i were as tall as the other trees, then i would s…
##  9 The fir tree_9 "i should have the birds building their nests on my boughs, a…
## 10 The fir tree_… "the tree was so discontented, that it took no pleasure in th…
## # … with 491 more rows

Now we unnest the tokens to words and create a new variable of the stemmed words

fairy_tales_tokens <- fairy_tales %>%
  unnest_tokens(token, token) %>%
  mutate(token_stem = wordStem(token))

fairy_tales_tokens

## # A tibble: 10,577 x 3
##    document       token  token_stem
##    <chr>          <chr>  <chr>     
##  1 The fir tree_1 far    far       
##  2 The fir tree_1 down   down      
##  3 The fir tree_1 in     in        
##  4 The fir tree_1 the    the       
##  5 The fir tree_1 forest forest    
##  6 The fir tree_1 where  where     
##  7 The fir tree_1 the    the       
##  8 The fir tree_1 warm   warm      
##  9 The fir tree_1 sun    sun       
## 10 The fir tree_1 and    and       
## # … with 10,567 more rows

We can take a look at all the times where stemming we can look at all the times stemming yields a different token.

different <- fairy_tales_tokens %>%
  select(token, token_stem) %>%
  filter(token != token_stem) %>%
  unique()

different

## # A tibble: 759 x 2
##    token      token_stem
##    <chr>      <chr>     
##  1 resting    rest      
##  2 pretty     pretti    
##  3 little     littl     
##  4 was        wa        
##  5 happy      happi     
##  6 wished     wish      
##  7 its        it        
##  8 companions companion 
##  9 pines      pine      
## 10 firs       fir       
## # … with 749 more rows

In this example, we have 759 different tokens.
But since stemming can collapse multiple different tokens into one.

different %>%
  count(token_stem, sort = TRUE)

## # A tibble: 672 x 2
##    token_stem     n
##    <chr>      <int>
##  1 seiz           4
##  2 leav           3
##  3 live           3
##  4 look           3
##  5 place          3
##  6 plai           3
##  7 pleas          3
##  8 sai            3
##  9 trembl         3
## 10 appear         2
## # … with 662 more rows
…
stm_match(c("dog", "happy"), stm_model)

## [1] FALSE

All of this is not perfect, there is still some uncertainty but it is a good first step to evaluate if stemming is appropriate for your application.

tested <- tibble(terms = stem_buckets,
                 stem = names(stem_buckets)) %>%
  mutate(match = map_lgl(terms, stm_match, stm_model))

tested

## # A tibble: 672 x 3
##    terms        stem      match
##    <named list> <chr>     <lgl>
##  1 <chr [2]>    a         FALSE
##  2 <chr [2]>    abl       TRUE 
##  3 <chr [2]>    abov      TRUE 
##  4 <chr [2]>    accompani TRUE 
##  5 <chr [2]>    ach       TRUE 
##  6 <chr [2]>    admir     TRUE 
##  7 <chr [2]>    adorn     TRUE 
##  8 <chr [2]>    ag        TRUE 
##  9 <chr [2]>    ala       TRUE 
## 10 <chr [2]>    alarm     TRUE 
## # … with 662 more rows
…
