Textrecipes series: Pretrained Word Embedding
…
Nothing too out of the ordinary, we have some young people and old people but nothing weird. Out of curiosity let us take a look at that one age that is above the pack.

reviews_train %>%
  count(age, sort = TRUE)
## # A tibble: 77 x 2
##      age     n
##    <dbl> <int>
##  1    39   932
##  2    35   685
##  3    36   640
##  4    34   600
##  5    38   583
##  6    37   572
##  7    33   552
##  8    41   549
##  9    46   543
## 10    42   502
## # … with 67 more rows

Since we have the clothing id, then I want to know if any of the reviews apply to the same articles of clothing.

reviews_train %>%
  count(clothing_id, sort = TRUE) 
## # A tibble: 1,068 x 2
##    clothing_id     n
##          <dbl> <int>
##  1        1078   758
##  2         862   603
##  3        1094   580
##  4         872   420
##  5        1081   415
##  6         829   409
##  7        1110   347
##  8         868   329
##  9         895   309
## 10         936   264
## # … with 1,058 more rows
…
I’m trying to create a fairly simple model so I won’t be including much information.

Modeling ⚙️

We will restrict ourselves to only use the two text fields and the age of the customer. We are doing this so we can compare results with previous results.

Before we go on, let us take a look at the pre-trained word embeddings. The embedding_glove6b() function gives us access to the 6B tokens glove embedding from the Stanford NLP Group.

You will get a prompt the first time you use this function. This is expected and done to make sure that the user agrees to the license and agreements of any given resource.

I have specified dimensions = 100 to get word vectors with 100 dimensions.

glove6b <- textdata::embedding_glove6b(dimensions = 100)
glove6b
## # A tibble: 400,000 x 101
##    token      d1      d2      d3      d4      d5      d6      d7      d8      d9
##    <chr>   <dbl>   <dbl>   <dbl>   <dbl>   <dbl>   <dbl>   <dbl>   <dbl>   <dbl>
##  1 "the" -0.0382 -0.245   0.728  -0.400   0.0832  0.0440 -0.391   0.334  -0.575 
##  2 ","   -0.108   0.111   0.598  -0.544   0.674   0.107   0.0389  0.355   0.0635
##  3 "."   -0.340   0.209   0.463  -0.648  -0.384   0.0380  0.171   0.160   0.466 
##  4 "of"  -0.153  -0.243   0.898   0.170   0.535   0.488  -0.588  -0.180  -1.36  
##  5 "to"  -0.190   0.0500  0.191  -0.0492 -0.0897  0.210  -0.550   0.0984 -0.201 
##  6 "and" -0.0720  0.231   0.0237 -0.506   0.339   0.196  -0.329   0.184  -0.181 
##  7 "in"   0.0857 -0.222   0.166   0.134   0.382   0.354   0.0129  0.225  -0.438 
##  8 "a"   -0.271   0.0440 -0.0203 -0.174   0.644   0.712   0.355   0.471  -0.296 
##  9 "\""  -0.305  -0.236   0.176  -0.729  -0.283  -0.256   0.266   0.0253 -0.0748
## 10 "'s"   0.589  -0.202   0.735  -0.683  -0.197  -0.180  -0.392   0.342  -0.606 
## # … with 399,990 more rows, and 91 more variables: d10 <dbl>, d11 <dbl>,
## #   d12 <dbl>, d13 <dbl>, d14 <dbl>, d15 <dbl>, d16 <dbl>, d17 <dbl>,
## #   d18 <dbl>, d19 <dbl>, d20 <dbl>, d21 <dbl>, d22 <dbl>, d23 <dbl>,
## #   d24 <dbl>, d25 <dbl>, d26 <dbl>, d27 <dbl>, d28 <dbl>, d29 <dbl>,
## #   d30 <dbl>, d31 <dbl>, d32 <dbl>, d33 <dbl>, d34 <dbl>, d35 <dbl>,
## #   d36 <dbl>, d37 <dbl>, d38 <dbl>, d39 <dbl>, d40 <dbl>, d41 <dbl>,
## #   d42 <dbl>, d43 <dbl>, d44 <dbl>, d45 <dbl>, d46 <dbl>, d47 <dbl>,
## #   d48 <dbl>, d49 <dbl>, d50 <dbl>, d51 <dbl>, d52 <dbl>, d53 <dbl>,
## #   d54 <dbl>, d55 <dbl>, d56 <dbl>, d57 <dbl>, d58 <dbl>, d59 <dbl>,
…
