…
And we find a whole of lines of no interest of us, which is to be expected. After some digging I manage to find that the lyrics are packed between p tags we can do this with rvest’s html_nodes().

the_stars_look_down_lyrics <- the_stars_look_down %>%
  read_html() %>%
  html_nodes("p") %>%
  html_text() %>%
  str_split("\n") %>%
  unlist() %>%
  tibble(text = .)

the_stars_look_down_lyrics
## # A tibble: 142 x 1
##    text                                                                         
##    <chr>                                                                        
##  1 [Spoken OVERHEAD VOICE]                                                      
##  2 For over seventy years miners of Durham County have come together once a yea…
##  3 [Spoken HERBERT MORRISON]                                                    
##  4 I want you men of the pits to come through. I want these streets clean of na…
##  5 [ENSEMBLE, MINERS]                                                           
##  6 Through the dark, and                                                        
##  7 Through the hunger                                                           
##  8 Through the night and                                                        
##  9 Through the fear                                                             
## 10 Through the fight and                                                        
## # … with 132 more rows

We notice some of the rows are indications of who is talking, these are quickly dealt with by a filter. Now we employ our tidytext arsenal with unnest_tokens and we find all the bi-grams (pairs of consecutive words). (notice how they overlap)

the_stars_look_down_lyrics %>%
  filter(!str_detect(text, "\\[")) %>%
  unnest_tokens(bigram, text, token = "ngrams", n = 2)
## # A tibble: 719 x 1
##    bigram       
##    <chr>        
##  1 for over     
##  2 over seventy 
##  3 seventy years
##  4 years miners 
##  5 miners of    
##  6 of durham    
##  7 durham county
##  8 county have  
##  9 have come    
## 10 come together
## # … with 709 more rows
…
